graph TD
  Constructor(constructor)-->Search(search)
    subgraph Data Fetching
      Search
    end
    subgraph Select Data 
      Search-->From(from)
      Search-->To(to)
    end
    subgraph Process
      From-->Sort(sort)
      To-->Sort(sort)
      Sort-->Filter(filter)
      Filter-->Process(process)
      Process-->InitPagination(pagination)
      subgraph Init Pagination
        InitPagination(pagination)
      end
    end
    subgraph Get Data
      InitPagination-->|All|Run(run)
      InitPagination-->|Page|Pagination(pagination)
      Pagination(pagination)
    end